{
  "lockfileVersion": 1,
  "dependencies": {
    "@babel/code-frame": {
      "version": "7.0.0-beta.42",
      "resolved": "https://registry.npmjs.org/@babel/code-frame/-/code-frame-7.0.0-beta.42.tgz",
      "integrity": "sha512-L8i94FLSyaLQpRfDo/qqSm8Ndb44zMtXParXo0MebJICG1zoCCL4+GkzUOlB4BNTRSXXQdb3feam/qw7bKPipQ=="
    },
    "@babel/core": {
      "version": "7.0.0-beta.42",
      "resolved": "https://registry.npmjs.org/@babel/core/-/core-7.0.0-beta.42.tgz",
      "integrity": "sha512-jcjZRewF/xqROfbk8EGyWlykaIR3IwrcefjWHu8xh4QnULSv3nfkjPM35v1itDgAT4/Jj5b4mPf4eZSC2HoRQA=="
    },
    "@babel/generator": {
      "version": "7.0.0-beta.42",
      "resolved": "https://registry.npmjs.org/@babel/generator/-/generator-7.0.0-beta.42.tgz",
      "integrity": "sha512-9x3zS4nG/6GAvJWB8fAK+5g/Di36xdubB43dMNSucNJTwPvmyfCippir/0I8zyG+ID66hLCLi8V9bomlWRYaHA=="
    },
    "@babel/helper-annotate-as-pure": {
      "version": "7.0.0-beta.42",
      "resolved": "https://registry.npmjs.org/@babel/helper-annotate-as-pure/-/helper-annotate-as-pure-7.0.0-beta.42.tgz",
      "integrity": "sha512-2lmcB7mHRSXZjDV9fdnWGRco+5fbI0PdUtsL7mNA2GtJs0GPoKdV3sCx0N4cpzG2YRR4dNCiB2riYIrzWjmQ1Q=="
    },
    "@babel/helper-builder-binary-assignment-operator-visitor": {
      "version": "7.0.0-beta.42",
      "resolved": "https://registry.npmjs.org/@babel/helper-builder-binary-assignment-operator-visitor/-/helper-builder-binary-assignment-operator-visitor-7.0.0-beta.42.tgz",
      "integrity": "sha512-lI14OS85dMAvsjTNTLrk3qqqvmy4CNxgXGpWkjMuKlYzwnC7LQvdrdH7wf3CBl8C0GSZHbgvADMUtrKiNjxJ5w=="
    },
    "@babel/helper-builder-react-jsx": {
      "version": "7.0.0-beta.42",
      "resolved": "https://registry.npmjs.org/@babel/helper-builder-react-jsx/-/helper-builder-react-jsx-7.0.0-beta.42.tgz",
      "integrity": "sha512-pgy7el3TV5u4SdWB9w1No5X0fooc8pWcVujbOzey+b9CQU5cf64CGct01bs+k7vGoKwoTYWizZD9MeFk2JLawg=="
    },
    "@babel/helper-call-delegate": {
      "version": "7.0.0-beta.42",
      "resolved": "https://registry.npmjs.org/@babel/helper-call-delegate/-/helper-call-delegate-7.0.0-beta.42.tgz",
      "integrity": "sha512-iGZJrRSKIvla9m8VJNv8wlbPReOLmVqFTpefl07v6e5cMPvP2XOgVWR2B4HZ9UwVo7Lx8rPAQ8/UZgjvq+pJ+A=="
    },
    "@babel/helper-define-map": {
      "version": "7.0.0-beta.42",
      "resolved": "https://registry.npmjs.org/@babel/helper-define-map/-/helper-define-map-7.0.0-beta.42.tgz",
      "integrity": "sha512-MKaHNaciAiPc7q4AS2XRqk+I0d2ADryuIxd6r0EykkQ57w2nQxFx/CTWWQEnob9OSAP5dPO1stWIZ9j/VeKtIQ=="
    },
    "@babel/helper-explode-assignable-expression": {
      "version": "7.0.0-beta.42",
      "resolved": "https://registry.npmjs.org/@babel/helper-explode-assignable-expression/-/helper-explode-assignable-expression-7.0.0-beta.42.tgz",
      "integrity": "sha512-fT1kVF2PoogggBT9QBgb4IXjbpC3VzFh1sJ6p/k3fZhOXbyqqco7oQ6lzvcIAO6rA7b15/iaIyLj0E+SLCHbwQ=="
    },
    "@babel/helper-function-name": {
      "version": "7.0.0-beta.42",
      "resolved": "https://registry.npmjs.org/@babel/helper-function-name/-/helper-function-name-7.0.0-beta.42.tgz",
      "integrity": "sha512-6IZ+kkPypwJrnmNzI3y31qAps2kXoPtCE241SvBva2YzB0n/YORWx2YM0jHPYOJBU9Xx5KkUhOKuWkeXZQgtTA=="
    },
    "@babel/helper-get-function-arity": {
      "version": "7.0.0-beta.42",
      "resolved": "https://registry.npmjs.org/@babel/helper-get-function-arity/-/helper-get-function-arity-7.0.0-beta.42.tgz",
      "integrity": "sha512-hF5KKcn+V/5PwU7KZ1aVwo535woLC9eV+djaoyNPZeMMJ2s+8bZlEa66Tarei0T68VRL5LXIs1Ao4hSabSkpBg=="
    },
    "@babel/helper-hoist-variables": {
      "version": "7.0.0-beta.42",
      "resolved": "https://registry.npmjs.org/@babel/helper-hoist-variables/-/helper-hoist-variables-7.0.0-beta.42.tgz",
      "integrity": "sha512-07NJrcvE2a5oOYiQUzSzih21R6nOpfoIe9saelKxORKXr9cOXcpoLXDi9XIAbRJoww8hqp57JbQxRK09FltZhQ=="
    },
    "@babel/helper-module-imports": {
      "version": "7.0.0-beta.42",
      "resolved": "https://registry.npmjs.org/@babel/helper-module-imports/-/helper-module-imports-7.0.0-beta.42.tgz",
      "integrity": "sha512-0kTX0cjuVKUKDJmHjmAb504kNrwae0Ja32hGii7zSHDKm0tVZvvpT8Cc1yYHo6UsIkUmzEvfGwIrNYemx1jTtQ=="
    },
    "@babel/helper-module-transforms": {
      "version": "7.0.0-beta.42",
      "resolved": "https://registry.npmjs.org/@babel/helper-module-transforms/-/helper-module-transforms-7.0.0-beta.42.tgz",
      "integrity": "sha512-XfCGsf6ijExiXw+oKL1Cp7VJttvgq8qalTGRqz4pviVNEjHU89Pfjsi1K/shdy5x4x+PiTSqn4zZ2PKfVp+vgg=="
    },
    "@babel/helper-optimise-call-expression": {
      "version": "7.0.0-beta.42",
      "resolved": "https://registry.npmjs.org/@babel/helper-optimise-call-expression/-/helper-optimise-call-expression-7.0.0-beta.42.tgz",
      "integrity": "sha512-4Sssg3iFnLH/1fZQFCPNJ7ISZzrRwq/X8/T5OaURGP3NMVTR4mnEUqrc3v8/SfL3pfa57q3Fe4zIC2h7FuPkww=="
    },
    "@babel/helper-plugin-utils": {
      "version": "7.0.0-beta.42",
      "resolved": "https://registry.npmjs.org/@babel/helper-plugin-utils/-/helper-plugin-utils-7.0.0-beta.42.tgz",
      "integrity": "sha512-hZLw8Iz9/YOxI9mgWyPOP1S84OcdQo1WFkZrS1sSf45g16sEb4dVslds2uvZgmx9BiG94PoWyABGf48Py6D6CA=="
    },
    "@babel/helper-regex": {
      "version": "7.0.0-beta.42",
      "resolved": "https://registry.npmjs.org/@babel/helper-regex/-/helper-regex-7.0.0-beta.42.tgz",
      "integrity": "sha512-QdwTsTPjJ63StltU6cEtqmB0Lc+L/OkK9Pz2bL9rylDF3UloyXinBA+SI/FkVyXi5HhDbBRf4T/OeVhWrsK68A=="
    },
    "@babel/helper-remap-async-to-generator": {
      "version": "7.0.0-beta.42",
      "resolved": "https://registry.npmjs.org/@babel/helper-remap-async-to-generator/-/helper-remap-async-to-generator-7.0.0-beta.42.tgz",
      "integrity": "sha512-At+ipbHRYoN0AaafqPvTPqyVYi+beantKZ2orCYSb/AzP2+JywaWlOPH0wyXLOGzjkJX548Is4cV2wGbEG7++Q=="
    },
    "@babel/helper-replace-supers": {
      "version": "7.0.0-beta.42",
      "resolved": "https://registry.npmjs.org/@babel/helper-replace-supers/-/helper-replace-supers-7.0.0-beta.42.tgz",
      "integrity": "sha512-5OwdkTm7TaEBiBMOUV97j8a2goD3+avek9EOl/UdE/CYdtdQ/8RPdUPqtqXApay30aZ/EjIpBItcNlBtt29WBw=="
    },
    "@babel/helper-simple-access": {
      "version": "7.0.0-beta.42",
      "resolved": "https://registry.npmjs.org/@babel/helper-simple-access/-/helper-simple-access-7.0.0-beta.42.tgz",
      "integrity": "sha512-SK1nb/sx+Q/0N8USPR+/5G1D1U9tCo82MzJknmK7X4yexDacHmDHtqNP7xqUlSSo3xfMfyHgT7mAH17Cwik/gA=="
    },
    "@babel/helper-split-export-declaration": {
      "version": "7.0.0-beta.42",
      "resolved": "https://registry.npmjs.org/@babel/helper-split-export-declaration/-/helper-split-export-declaration-7.0.0-beta.42.tgz",
      "integrity": "sha512-2r8pZG6SAJTTaI2OhxCmz5PKlMUPY5adOHrHtb1gM3ibJPDOzPAeOQNzItdxNnM33jjRakEGitXX6iYg7Sz73w=="
    },
    "@babel/helper-wrap-function": {
      "version": "7.0.0-beta.42",
      "resolved": "https://registry.npmjs.org/@babel/helper-wrap-function/-/helper-wrap-function-7.0.0-beta.42.tgz",
      "integrity": "sha512-jpZDbZROEw2HfmlImLXDB7BFoyo6M/Wn8jOOc1+JfCpg2uaZ+n6Q0C3sA6mCN6o7ZgpJkgT7IHQwdB3RMV6KLA=="
    },
    "@babel/helpers": {
      "version": "7.0.0-beta.42",
      "resolved": "https://registry.npmjs.org/@babel/helpers/-/helpers-7.0.0-beta.42.tgz",
      "integrity": "sha512-att9SiG9GxOUdjai87LqjSstgNsdo1nXiGu+Eh078zwRiN8bM5Ww8vrbYkAm9PF4HaW6OzOKqyKxv595RT79bA=="
    },
    "@babel/highlight": {
      "version": "7.0.0-beta.42",
      "resolved": "https://registry.npmjs.org/@babel/highlight/-/highlight-7.0.0-beta.42.tgz",
      "integrity": "sha512-X3Ur/A/lIbbP8W0pmwgqtDXIxhQmxPaiwY9SKP7kF9wvZfjZRwMvbJE92ozUhF3UDK3DCKaV7oGqmI1rP/zqWA=="
    },
    "@babel/plugin-proposal-async-generator-functions": {
      "version": "7.0.0-beta.42",
      "resolved": "https://registry.npmjs.org/@babel/plugin-proposal-async-generator-functions/-/plugin-proposal-async-generator-functions-7.0.0-beta.42.tgz",
      "integrity": "sha512-fPPsSCajWzefDSb49JEeZfd/UeMK3xEQSRAz/H3BZ1uaRatwNNZoOJq4/WRH/xDeISmYUdkLRtqs39VPWLKYVg=="
    },
    "@babel/plugin-proposal-class-properties": {
      "version": "7.0.0-beta.42",
      "resolved": "https://registry.npmjs.org/@babel/plugin-proposal-class-properties/-/plugin-proposal-class-properties-7.0.0-beta.42.tgz",
      "integrity": "sha512-VXRmo/t2nAVciXxEgPTAfcUBXj0UXNPIvX2aj3lzHL51N+uh+rtgsIF0nuZwGE4u89WvBDH66yjAu60Ra674kw=="
    },
    "@babel/plugin-proposal-object-rest-spread": {
      "version": "7.0.0-beta.42",
      "resolved": "https://registry.npmjs.org/@babel/plugin-proposal-object-rest-spread/-/plugin-proposal-object-rest-spread-7.0.0-beta.42.tgz",
      "integrity": "sha512-L4z5R8k3GxQKVYE2zGwftQ9K/IIIXMZKnY4C0lDyyMJAVk+H+cFUD0NfD4KTyZACc8DPqjkw6aEtC/AKCKUvEA=="
    },
    "@babel/plugin-syntax-async-generators": {
      "version": "7.0.0-beta.42",
      "resolved": "https://registry.npmjs.org/@babel/plugin-syntax-async-generators/-/plugin-syntax-async-generators-7.0.0-beta.42.tgz",
      "integrity": "sha512-k6oVMsmY/mcp+rPRcK4dJL/J1ahtIRucXtNHNvAVRV9WFc7G3r1rrb1GlM4iNHareXBNdRlf7mkxyVaVpyJ3TQ=="
    },
    "@babel/plugin-syntax-class-properties": {
      "version": "7.0.0-beta.42",
      "resolved": "https://registry.npmjs.org/@babel/plugin-syntax-class-properties/-/plugin-syntax-class-properties-7.0.0-beta.42.tgz",
      "integrity": "sha512-nG0XCeuni6GgjxOqtxVtnfSoRFeXdqY6cja83cmFpC1klw8f6XShbeDmK7xX1mUYBHkEqLTDurlX+fuua9siCg=="
    },
    "@babel/plugin-syntax-dynamic-import": {
      "version": "7.0.0-beta.42",
      "resolved": "https://registry.npmjs.org/@babel/plugin-syntax-dynamic-import/-/plugin-syntax-dynamic-import-7.0.0-beta.42.tgz",
      "integrity": "sha512-N+XpzyZviWu+MJA7Cgi+LtMj1CMLkZyjuy4qbSZauqm6gIrNioMtirLDt4+NrCFx7kZG/T4ic6jLUpWdH5SlXg=="
    },
    "@babel/plugin-syntax-flow": {
      "version": "7.0.0-beta.42",
      "resolved": "https://registry.npmjs.org/@babel/plugin-syntax-flow/-/plugin-syntax-flow-7.0.0-beta.42.tgz",
      "integrity": "sha512-5LcIB4CCS45ik8oUAr6pHu0BtDhiWvQOMw1lIGtX/gBESmv+O366NvkXWhzmBsZ5J9OQhs64Ox85Q22XKZYiUg=="
    },
    "@babel/plugin-syntax-jsx": {
      "version": "7.0.0-beta.42",
      "resolved": "https://registry.npmjs.org/@babel/plugin-syntax-jsx/-/plugin-syntax-jsx-7.0.0-beta.42.tgz",
      "integrity": "sha512-NWlawLcYkxMpH2QK4CbYg1ctTuFaKYRVBZGiGkgcO7xD59bNUu2HTG/BXynuaheQiGX96ItoK1igV6vuS9BK/w=="
    },
    "@babel/plugin-syntax-object-rest-spread": {
      "version": "7.0.0-beta.42",
      "resolved": "https://registry.npmjs.org/@babel/plugin-syntax-object-rest-spread/-/plugin-syntax-object-rest-spread-7.0.0-beta.42.tgz",
      "integrity": "sha512-Zhz6MdSpEviY3UFh/DUlrvf/Tn4wWosHXrnR52PBRtP/8ESWVaFuk57xWcBon3jJh0z5hYyRUr+D0wR7W7ZmnQ=="
    },
    "@babel/plugin-transform-arrow-functions": {
      "version": "7.0.0-beta.42",
      "resolved": "https://registry.npmjs.org/@babel/plugin-transform-arrow-functions/-/plugin-transform-arrow-functions-7.0.0-beta.42.tgz",
      "integrity": "sha512-/tpAo2Ur8m32U9pBcGQ6JKplWNEh462zxCnwVKL9yVwG02lttC4QSYBvreRK1wBidDz8JgRZFGGeB9N4l23/Sg=="
    },
    "@babel/plugin-transform-async-to-generator": {
      "version": "7.0.0-beta.42",
      "resolved": "https://registry.npmjs.org/@babel/plugin-transform-async-to-generator/-/plugin-transform-async-to-generator-7.0.0-beta.42.tgz",
      "integrity": "sha512-TTu8z0xz/mS8H98nCVw3wp86RSzdvUhtM4hX32sItrauJX1X8shVZDKbDtG8ZdA1FMKLgfvmn/hxtPOqjOkkpw=="
    },
    "@babel/plugin-transform-block-scoped-functions": {
      "version": "7.0.0-beta.42",
      "resolved": "https://registry.npmjs.org/@babel/plugin-transform-block-scoped-functions/-/plugin-transform-block-scoped-functions-7.0.0-beta.42.tgz",
      "integrity": "sha512-Ib3bSf7pYLbqe+46RrJFJae1DrNYvIrGleYjzaN/MFYNaG9ePaOevSBmFHPxuW1SM5l2tTloeu5a7mhs9h0oxg=="
    },
    "@babel/plugin-transform-block-scoping": {
      "version": "7.0.0-beta.42",
      "resolved": "https://registry.npmjs.org/@babel/plugin-transform-block-scoping/-/plugin-transform-block-scoping-7.0.0-beta.42.tgz",
      "integrity": "sha512-qvlAR1L7gZ1gqdj81a2AEfuar3lFsr7FSad4JrN5CJinQlVn/1eJe8oB1DQ7U8ocAzDDjn3tGit9lN7uKBWZsQ=="
    },
    "@babel/plugin-transform-classes": {
      "version": "7.0.0-beta.42",
      "resolved": "https://registry.npmjs.org/@babel/plugin-transform-classes/-/plugin-transform-classes-7.0.0-beta.42.tgz",
      "integrity": "sha512-0GCv1wNyfMXKuaulype6+TF02Bxq/zQZ4NUbn2w9aQxzIZviAe1jcA7IRrNN2eVQL9L4oi8N6B26Wf8xFoBNrQ=="
    },
    "@babel/plugin-transform-computed-properties": {
      "version": "7.0.0-beta.42",
      "resolved": "https://registry.npmjs.org/@babel/plugin-transform-computed-properties/-/plugin-transform-computed-properties-7.0.0-beta.42.tgz",
      "integrity": "sha512-WYGXfe2uo2FdACubMhwV6Oq1Zx3SNSeBUHRe2X53WKbIKLMZlxRR5GfoLv4V2CeDGHL3mb97wYhmXSb56bIXeg=="
    },
    "@babel/plugin-transform-destructuring": {
      "version": "7.0.0-beta.42",
      "resolved": "https://registry.npmjs.org/@babel/plugin-transform-destructuring/-/plugin-transform-destructuring-7.0.0-beta.42.tgz",
      "integrity": "sha512-G3hwLdgeKCZ8EWqwMqeOEoXxRBc5aJthMUD5kN7sAIko+lvwIVQ0do9Op/+DAGVnrvC+g0Ool2Mihcej2NsCPQ=="
    },
    "@babel/plugin-transform-exponentiation-operator": {
      "version": "7.0.0-beta.42",
      "resolved": "https://registry.npmjs.org/@babel/plugin-transform-exponentiation-operator/-/plugin-transform-exponentiation-operator-7.0.0-beta.42.tgz",
      "integrity": "sha512-ylnAziSEho282hxQROK5tbNtxm0sSoQaQS74OCSE52eFeDNqSNGapyiNiWMZ71gqs8q5aqYsPgfa/vTccLT7uA=="
    },
    "@babel/plugin-transform-flow-strip-types": {
      "version": "7.0.0-beta.42",
      "resolved": "https://registry.npmjs.org/@babel/plugin-transform-flow-strip-types/-/plugin-transform-flow-strip-types-7.0.0-beta.42.tgz",
      "integrity": "sha512-pbZl37LlS8OMghp29oPq/csEnTnnkh+S/HY7nN0ZfPuEYMNp83ZjWLCifgvRIM9tNfwXifP+oXj1Yf7ek1dePA=="
    },
    "@babel/plugin-transform-for-of": {
      "version": "7.0.0-beta.42",
      "resolved": "https://registry.npmjs.org/@babel/plugin-transform-for-of/-/plugin-transform-for-of-7.0.0-beta.42.tgz",
      "integrity": "sha512-pn+fmrr6pfXeEUMyx7JrKAOG/XCiABvXFOmQYqLoCl0POcW8sE75r8w/Lu2wHFayrNgDqR7/RCb7RW4h/U2u1Q=="
    },
    "@babel/plugin-transform-literals": {
      "version": "7.0.0-beta.42",
      "resolved": "https://registry.npmjs.org/@babel/plugin-transform-literals/-/plugin-transform-literals-7.0.0-beta.42.tgz",
      "integrity": "sha512-mWEayRwUCY3/u8LZpcdR96TiWqofP60jjfVZUJ6agK6ifwEBgamv1Db8syIwUCjaZww5bjyZqX61AmP4fx3dvQ=="
    },
    "@babel/plugin-transform-modules-commonjs": {
      "version": "7.0.0-beta.42",
      "resolved": "https://registry.npmjs.org/@babel/plugin-transform-modules-commonjs/-/plugin-transform-modules-commonjs-7.0.0-beta.42.tgz",
      "integrity": "sha512-tCN0FFdTHaXpuJokvW8iWtbDpjKDNDO2dIyb8rr0GMQxsA62914e8oclcDUPEbC5iF5SCDEF0CmVHXbxnvANfQ=="
    },
    "@babel/plugin-transform-object-super": {
      "version": "7.0.0-beta.42",
      "resolved": "https://registry.npmjs.org/@babel/plugin-transform-object-super/-/plugin-transform-object-super-7.0.0-beta.42.tgz",
      "integrity": "sha512-d+gki0bYQtlleX4LnvpwjIkjmZScKQuHhDsD3N3nHLpwxbANp3YGtIfuf8dbY/PIbUKtd55/ErCvdsyuGlxAlw=="
    },
    "@babel/plugin-transform-parameters": {
      "version": "7.0.0-beta.42",
      "resolved": "https://registry.npmjs.org/@babel/plugin-transform-parameters/-/plugin-transform-parameters-7.0.0-beta.42.tgz",
      "integrity": "sha512-z2iXwael/zMHkOvvkJSirg1jIxGA00JOIwdERB+x+VGxLfLb+1IdyiytVw9+w5RTNSVAGYt6R4jhvUdAeQwMiQ=="
    },
    "@babel/plugin-transform-property-literals": {
      "version": "7.0.0-beta.42",
      "resolved": "https://registry.npmjs.org/@babel/plugin-transform-property-literals/-/plugin-transform-property-literals-7.0.0-beta.42.tgz",
      "integrity": "sha512-3dYkXM7aZ8b6x1cHUhZPKYYcF/4HppoQfythpi95tumfgZQR2NDu2mzAT/ynE84/x8Vx7NrSxuNfB6e3CJuzQA=="
    },
    "@babel/plugin-transform-react-display-name": {
      "version": "7.0.0-beta.42",
      "resolved": "https://registry.npmjs.org/@babel/plugin-transform-react-display-name/-/plugin-transform-react-display-name-7.0.0-beta.42.tgz",
      "integrity": "sha512-0oyVkjXLkxXSt21mPdfRNwKZ/sIEjcDx5/LqMS+KtMUxsCcB2BFhtzaESd8xLdXb7Zi2otMjt2DsDK+IUeitxA=="
    },
    "@babel/plugin-transform-react-jsx": {
      "version": "7.0.0-beta.42",
      "resolved": "https://registry.npmjs.org/@babel/plugin-transform-react-jsx/-/plugin-transform-react-jsx-7.0.0-beta.42.tgz",
      "integrity": "sha512-XT8M4cZmr/Gaw6Cp2UELhYajB/PT6xNERtv8d+Eu08fULfAbtZJBFVxmm68T9LT+JZkcI35O1gTP17yJz5PJrA=="
    },
    "@babel/plugin-transform-react-jsx-self": {
      "version": "7.0.0-beta.42",
      "resolved": "https://registry.npmjs.org/@babel/plugin-transform-react-jsx-self/-/plugin-transform-react-jsx-self-7.0.0-beta.42.tgz",
      "integrity": "sha512-bpG/Z6D8RtckyYPbqMfU/DaV7H/xHaTNAJLzYLHqQhtQT70pwmLVQ8E6ara18yp7k+6OJytrrmJm9F6ClT4pnA=="
    },
    "@babel/plugin-transform-react-jsx-source": {
      "version": "7.0.0-beta.42",
      "resolved": "https://registry.npmjs.org/@babel/plugin-transform-react-jsx-source/-/plugin-transform-react-jsx-source-7.0.0-beta.42.tgz",
      "integrity": "sha512-vLKqNyFDx4bESdy7dTWLmAhCTk8zszsxhYGKL/0FaFacksSQye5conP68j8jMEMn9M/JBGgxfFqL6tPbOn2uVw=="
    },
    "@babel/plugin-transform-regenerator": {
      "version": "7.0.0-beta.42",
      "resolved": "https://registry.npmjs.org/@babel/plugin-transform-regenerator/-/plugin-transform-regenerator-7.0.0-beta.42.tgz",
      "integrity": "sha512-E1s/MBk8ztbXqxbeUvFH26x8vAWq/7qX3UdbB8fKoN3EX2Wg9+yXWyuI50jOhXOq7jfmbOrVe0BWoUOjCOqWPQ=="
    },
    "@babel/plugin-transform-runtime": {
      "version": "7.0.0-beta.42",
      "resolved": "https://registry.npmjs.org/@babel/plugin-transform-runtime/-/plugin-transform-runtime-7.0.0-beta.42.tgz",
      "integrity": "sha512-4LcNdjMvKzCwK/eqfbUiXFAZht8OTx0Gv2Ok42o+zhb8DvNUaYUndgW9AU4Q6nbpxzw2vTWNUXSIRvdGsxpgQQ=="
    },
    "@babel/plugin-transform-shorthand-properties": {
      "version": "7.0.0-beta.42",
      "resolved": "https://registry.npmjs.org/@babel/plugin-transform-shorthand-properties/-/plugin-transform-shorthand-properties-7.0.0-beta.42.tgz",
      "integrity": "sha512-GID8z2s6R/XOHgaoxrKBH+zdBOBqFJTDYDS91w30fJGiHxVM4qFVOpYDNIMxmsjqW6bKVHyLeHBezp0OHv+9QQ=="
    },
    "@babel/plugin-transform-spread": {
      "version": "7.0.0-beta.42",
      "resolved": "https://registry.npmjs.org/@babel/plugin-transform-spread/-/plugin-transform-spread-7.0.0-beta.42.tgz",
      "integrity": "sha512-ZzWt7RvGcV+9DcOTBwE6ArNqDpUMpzZhCToj3UNtULol9gGBbrGgUK/LdGwGInj+Z2aIdOjbAMFtEuC6626lJg=="
    },
    "@babel/plugin-transform-sticky-regex": {
      "version": "7.0.0-beta.42",
      "resolved": "https://registry.npmjs.org/@babel/plugin-transform-sticky-regex/-/plugin-transform-sticky-regex-7.0.0-beta.42.tgz",
      "integrity": "sha512-zQI5NhVfnSNNFiG8JhoXXzTV89aLTfHW22inWefATRmtqe64iHZ4bivBTkDbxt6X/St1yH0aZB+4XtBDZjzcKQ=="
    },
    "@babel/plugin-transform-template-literals": {
      "version": "7.0.0-beta.42",
      "resolved": "https://registry.npmjs.org/@babel/plugin-transform-template-literals/-/plugin-transform-template-literals-7.0.0-beta.42.tgz",
      "integrity": "sha512-sCQmaa8fd3uPdy/J/qOkvPtxo3RtiH6SyW5bzdnUSOQ3+ND3Bj4OfJNziZxJwZZ8Y40lHrM0dKxZ8YnihlCETQ=="
    },
    "@babel/plugin-transform-typeof-symbol": {
      "version": "7.0.0-beta.42",
      "resolved": "https://registry.npmjs.org/@babel/plugin-transform-typeof-symbol/-/plugin-transform-typeof-symbol-7.0.0-beta.42.tgz",
      "integrity": "sha512-cuDOzCv7kpMqaLypTEN90ErVmKUV3vjTuO8qzCGlmJMZwCcteTpxCiwISJLnAxcGtj++fMVY0vntbcj4nXf9XQ=="
    },
    "@babel/plugin-transform-unicode-regex": {
      "version": "7.0.0-beta.42",
      "resolved": "https://registry.npmjs.org/@babel/plugin-transform-unicode-regex/-/plugin-transform-unicode-regex-7.0.0-beta.42.tgz",
      "integrity": "sha512-iqQ8bhkRPZE2Vl5gR7GF0x4xUVlkncMxr7ve7Rjp/TMzNbO3S2XLr+1SPu+B+U3fIPDDA4I97enw5YL5V7QFOA=="
    },
    "@babel/preset-react": {
      "version": "7.0.0-beta.42",
      "resolved": "https://registry.npmjs.org/@babel/preset-react/-/preset-react-7.0.0-beta.42.tgz",
      "integrity": "sha512-2o+5MXAzGMnjlZlxsYv08Joh+T4IDd2NIrpeVB+5GgeboU6k0964pObdZxMjB9A2dOweLSCOHwP21JwO6bDUbA=="
    },
    "@babel/runtime": {
      "version": "7.0.0-beta.42",
      "resolved": "https://registry.npmjs.org/@babel/runtime/-/runtime-7.0.0-beta.42.tgz",
      "integrity": "sha512-iOGRzUoONLOtmCvjUsZv3mZzgCT6ljHQY5fr1qG1QIiJQwtM7zbPWGGpa3QWETq+UqwWyJnoi5XZDZRwZDFciQ=="
    },
    "@babel/template": {
      "version": "7.0.0-beta.42",
      "resolved": "https://registry.npmjs.org/@babel/template/-/template-7.0.0-beta.42.tgz",
      "integrity": "sha512-EK7YdTe47j4VxlwNvz5bnlk5Jx/wWublnqfgOY2IuSNdxCQgXrLD34PfTnabGxywNSkJkcSo6jwr2JGT+S48dA=="
    },
    "@babel/traverse": {
      "version": "7.0.0-beta.42",
      "resolved": "https://registry.npmjs.org/@babel/traverse/-/traverse-7.0.0-beta.42.tgz",
      "integrity": "sha512-DZwMuZBfYVIn/cxpXZzHDgKmarW/MWqplLv1k7QJYhK5r5l6GAac/DkKl75A0CjPYrD3VGco6H6ZQp12QaYKSw=="
    },
    "@babel/types": {
      "version": "7.0.0-beta.42",
      "resolved": "https://registry.npmjs.org/@babel/types/-/types-7.0.0-beta.42.tgz",
      "integrity": "sha512-+pmpISmTHQqMMpHHtDLxcvtRhmn53bAxy8goJfHipS/uy/r3PLcuSdPizLW7DhtBWbtgIKZufLObfnIMoyMNsw=="
    },
    "acorn": {
      "version": "5.5.3",
      "resolved": "https://registry.npmjs.org/acorn/-/acorn-5.5.3.tgz",
      "integrity": "sha512-jd5MkIUlbbmb07nXH0DT3y7rDVtkzDi4XZOUVWAer8ajmF/DTSSbl5oNFyDOl/OXA33Bl79+ypHhl2pN20VeOQ=="
    },
    "ansi-styles": {
      "version": "3.2.1",
      "resolved": "https://registry.npmjs.org/ansi-styles/-/ansi-styles-3.2.1.tgz",
      "integrity": "sha512-VT0ZI6kZRdTh8YyJw3SMbYm/u+NqfsAxEpWO0Pf9sq8/e94WxxOpPKx9FR1FlyCtOVDNOQ+8ntlqFxiRc+r5qA=="
    },
    "arr-diff": {
      "version": "2.0.0",
      "resolved": "https://registry.npmjs.org/arr-diff/-/arr-diff-2.0.0.tgz",
      "integrity": "sha1-jzuCf5Vai9ZpaX5KQlasPOrjVs8="
    },
    "arr-flatten": {
      "version": "1.1.0",
      "resolved": "https://registry.npmjs.org/arr-flatten/-/arr-flatten-1.1.0.tgz",
      "integrity": "sha512-L3hKV5R/p5o81R7O02IGnwpDmkp6E982XhtbuwSe3O4qOtMMMtodicASA1Cny2U+aCXcNpml+m4dPsvsJ3jatg=="
    },
    "array-unique": {
      "version": "0.2.1",
      "resolved": "https://registry.npmjs.org/array-unique/-/array-unique-0.2.1.tgz",
      "integrity": "sha1-odl8yvy8JiXMcPrc6zalDFiwGlM="
    },
    "babel-helper-evaluate-path": {
      "version": "0.2.0",
      "resolved": "https://registry.npmjs.org/babel-helper-evaluate-path/-/babel-helper-evaluate-path-0.2.0.tgz",
      "integrity": "sha512-0EK9TUKMxHL549hWDPkQoS7R0Ozg1CDLheVBHYds2B2qoAvmr9ejY3zOXFsrICK73TN7bPhU14PBeKc8jcBTwg=="
    },
    "babel-helper-flip-expressions": {
      "version": "0.2.0",
      "resolved": "https://registry.npmjs.org/babel-helper-flip-expressions/-/babel-helper-flip-expressions-0.2.0.tgz",
      "integrity": "sha512-rAsPA1pWBc7e2E6HepkP2e1sXugT+Oq/VCqhyuHJ8aJ2d/ifwnJfd4Qxjm21qlW43AN8tqaeByagKK6wECFMSw=="
    },
    "babel-helper-is-nodes-equiv": {
      "version": "0.0.1",
      "resolved": "https://registry.npmjs.org/babel-helper-is-nodes-equiv/-/babel-helper-is-nodes-equiv-0.0.1.tgz",
      "integrity": "sha1-NOmzALFHnd2Y7HfqC76TQt/jloQ="
    },
    "babel-helper-is-void-0": {
      "version": "0.2.0",
      "resolved": "https://registry.npmjs.org/babel-helper-is-void-0/-/babel-helper-is-void-0-0.2.0.tgz",
      "integrity": "sha512-Axj1AYuD0E3Dl7nT3KxROP7VekEofz3XtEljzURf3fABalLpr8PamtgLFt+zuxtaCxRf9iuZmbAMMYWri5Bazw=="
    },
    "babel-helper-mark-eval-scopes": {
      "version": "0.2.0",
      "resolved": "https://registry.npmjs.org/babel-helper-mark-eval-scopes/-/babel-helper-mark-eval-scopes-0.2.0.tgz",
      "integrity": "sha512-KJuwrOUcHbvbh6he4xRXZFLaivK9DF9o3CrvpWnK1Wp0B+1ANYABXBMgwrnNFIDK/AvicxQ9CNr8wsgivlp4Aw=="
    },
    "babel-helper-remove-or-void": {
      "version": "0.2.0",
      "resolved": "https://registry.npmjs.org/babel-helper-remove-or-void/-/babel-helper-remove-or-void-0.2.0.tgz",
      "integrity": "sha512-1Z41upf/XR+PwY7Nd+F15Jo5BiQi5205ZXUuKed3yoyQgDkMyoM7vAdjEJS/T+M6jy32sXjskMUgms4zeiVtRA=="
    },
    "babel-helper-to-multiple-sequence-expressions": {
      "version": "0.2.0",
      "resolved": "https://registry.npmjs.org/babel-helper-to-multiple-sequence-expressions/-/babel-helper-to-multiple-sequence-expressions-0.2.0.tgz",
      "integrity": "sha512-ij9lpfdP3+Zc/7kNwa+NXbTrUlsYEWPwt/ugmQO0qflzLrveTIkbfOqQztvitk81aG5NblYDQXDlRohzu3oa8Q=="
    },
    "babel-plugin-minify-builtins": {
      "version": "0.2.0",
      "resolved": "https://registry.npmjs.org/babel-plugin-minify-builtins/-/babel-plugin-minify-builtins-0.2.0.tgz",
      "integrity": "sha512-4i+8ntaS8gwVUcOz5y+zE+55OVOl2nTbmHV51D4wAIiKcRI8U5K//ip1GHfhsgk/NJrrHK7h97Oy5jpqt0Iixg=="
    },
    "babel-plugin-minify-constant-folding": {
      "version": "0.2.0",
      "resolved": "https://registry.npmjs.org/babel-plugin-minify-constant-folding/-/babel-plugin-minify-constant-folding-0.2.0.tgz",
      "integrity": "sha512-B3ffQBEUQ8ydlIkYv2MkZtTCbV7FAkWAV7NkyhcXlGpD10PaCxNGQ/B9oguXGowR1m16Q5nGhvNn8Pkn1MO6Hw=="
    },
    "babel-plugin-minify-dead-code-elimination": {
      "version": "0.2.0",
      "resolved": "https://registry.npmjs.org/babel-plugin-minify-dead-code-elimination/-/babel-plugin-minify-dead-code-elimination-0.2.0.tgz",
      "integrity": "sha512-zE7y3pRyzA4zK5nBou0kTcwUTSQ/AiFrynt1cIEYN7vcO2gS9ZFZoI0aO9JYLUdct5fsC1vfB35408yrzTyVfg=="
    },
    "babel-plugin-minify-flip-comparisons": {
      "version": "0.2.0",
      "resolved": "https://registry.npmjs.org/babel-plugin-minify-flip-comparisons/-/babel-plugin-minify-flip-comparisons-0.2.0.tgz",
      "integrity": "sha512-QOqXSEmD/LhT3LpM1WCyzAGcQZYYKJF7oOHvS6QbpomHenydrV53DMdPX2mK01icBExKZcJAHF209wvDBa+CSg=="
    },
    "babel-plugin-minify-guarded-expressions": {
      "version": "0.2.0",
      "resolved": "https://registry.npmjs.org/babel-plugin-minify-guarded-expressions/-/babel-plugin-minify-guarded-expressions-0.2.0.tgz",
      "integrity": "sha512-5+NSPdRQ9mnrHaA+zFj+D5OzmSiv90EX5zGH6cWQgR/OUqmCHSDqgTRPFvOctgpo8MJyO7Rt7ajs2UfLnlAwYg=="
    },
    "babel-plugin-minify-infinity": {
      "version": "0.2.0",
      "resolved": "https://registry.npmjs.org/babel-plugin-minify-infinity/-/babel-plugin-minify-infinity-0.2.0.tgz",
      "integrity": "sha512-U694vrla1lN6vDHWGrR832t3a/A2eh+kyl019LxEE2+sS4VTydyOPRsAOIYAdJegWRA4cMX1lm9azAN0cLIr8g=="
    },
    "babel-plugin-minify-mangle-names": {
      "version": "0.2.0",
      "resolved": "https://registry.npmjs.org/babel-plugin-minify-mangle-names/-/babel-plugin-minify-mangle-names-0.2.0.tgz",
      "integrity": "sha512-Gixuak1/CO7VCdjn15/8Bxe/QsAtDG4zPbnsNoe1mIJGCIH/kcmSjFhMlGJtXDQZd6EKzeMfA5WmX9+jvGRefw=="
    },
    "babel-plugin-minify-numeric-literals": {
      "version": "0.2.0",
      "resolved": "https://registry.npmjs.org/babel-plugin-minify-numeric-literals/-/babel-plugin-minify-numeric-literals-0.2.0.tgz",
      "integrity": "sha512-VcLpb+r1YS7+RIOXdRsFVLLqoh22177USpHf+JM/g1nZbzdqENmfd5v534MLAbRErhbz6SyK+NQViVzVtBxu8g=="
    },
    "babel-plugin-minify-replace": {
      "version": "0.2.0",
      "resolved": "https://registry.npmjs.org/babel-plugin-minify-replace/-/babel-plugin-minify-replace-0.2.0.tgz",
      "integrity": "sha512-SEW6zoSVxh3OH6E1LCgyhhTWMnCv+JIRu5h5IlJDA11tU4ZeSF7uPQcO4vN/o52+FssRB26dmzJ/8D+z0QPg5Q=="
    },
    "babel-plugin-minify-simplify": {
      "version": "0.2.0",
      "resolved": "https://registry.npmjs.org/babel-plugin-minify-simplify/-/babel-plugin-minify-simplify-0.2.0.tgz",
      "integrity": "sha512-Mj3Mwy2zVosMfXDWXZrQH5/uMAyfJdmDQ1NVqit+ArbHC3LlXVzptuyC1JxTyai/wgFvjLaichm/7vSUshkWqw=="
    },
    "babel-plugin-minify-type-constructors": {
      "version": "0.2.0",
      "resolved": "https://registry.npmjs.org/babel-plugin-minify-type-constructors/-/babel-plugin-minify-type-constructors-0.2.0.tgz",
      "integrity": "sha512-NiOvvA9Pq6bki6nP4BayXwT5GZadw7DJFDDzHmkpnOQpENWe8RtHtKZM44MG1R6EQ5XxgbLdsdhswIzTkFlO5g=="
    },
    "babel-plugin-transform-es2015-modules-reify": {
      "version": "0.14.2",
      "resolved": "https://registry.npmjs.org/babel-plugin-transform-es2015-modules-reify/-/babel-plugin-transform-es2015-modules-reify-0.14.2.tgz",
      "integrity": "sha512-EPMKQetvssxoe47ilW7YfT3fIvIkpPZaasyk4teuH/SNYCg8/QAtA9i7r/zPu8pQG0nQ7+dUM6M5J4MJ9NEcaw=="
    },
    "babel-plugin-transform-inline-consecutive-adds": {
      "version": "0.2.0",
      "resolved": "https://registry.npmjs.org/babel-plugin-transform-inline-consecutive-adds/-/babel-plugin-transform-inline-consecutive-adds-0.2.0.tgz",
      "integrity": "sha512-GlhOuLOQ28ua9prg0hT33HslCrEmz9xWXy9ZNZSACppCyRxxRW+haYtRgm7uYXCcd0q8ggCWD2pfWEJp5iiZfQ=="
    },
    "babel-plugin-transform-member-expression-literals": {
      "version": "6.9.0",
      "resolved": "https://registry.npmjs.org/babel-plugin-transform-member-expression-literals/-/babel-plugin-transform-member-expression-literals-6.9.0.tgz",
      "integrity": "sha512-bxtac+8w755ctVeDs4vU98RhWY49eW1wO02HAN+eirZYSKk/dVrKONIznXbHmxWKxT4UX1rpTKOCyezuzLpbTw=="
    },
    "babel-plugin-transform-merge-sibling-variables": {
      "version": "6.9.0",
      "resolved": "https://registry.npmjs.org/babel-plugin-transform-merge-sibling-variables/-/babel-plugin-transform-merge-sibling-variables-6.9.0.tgz",
      "integrity": "sha512-9G1URVEEKoQLDqe0GwqYudECN7kE/q0OCNo5TiD1iwWnnaKi97xY915l5r2KKUvNflXEm9c3faNWknSXYQ7h6Q=="
    },
    "babel-plugin-transform-minify-booleans": {
      "version": "6.9.0",
      "resolved": "https://registry.npmjs.org/babel-plugin-transform-minify-booleans/-/babel-plugin-transform-minify-booleans-6.9.0.tgz",
      "integrity": "sha512-JtpyTRyF+wF/r7GSxpRbNCrVve5M/aCC8xoGcnFItaPUDqjxKmFYvBzMc9u+g0lgo8NWjuZLc16MYaIwkHKD/A=="
    },
    "babel-plugin-transform-property-literals": {
      "version": "6.9.0",
      "resolved": "https://registry.npmjs.org/babel-plugin-transform-property-literals/-/babel-plugin-transform-property-literals-6.9.0.tgz",
      "integrity": "sha512-B8s+71+4DPye9+pmZiPGgLPy3YqcmIuvE/9UcZLczPlwL5ALwF6qRUdLC3Fk17NhL6jxp4u33ZVZ8R4kvASPzw=="
    },
    "babel-plugin-transform-regexp-constructors": {
      "version": "0.2.0",
      "resolved": "https://registry.npmjs.org/babel-plugin-transform-regexp-constructors/-/babel-plugin-transform-regexp-constructors-0.2.0.tgz",
      "integrity": "sha512-7IsQ6aQx6LAaOqy97/PthTf+5Nx9grZww3r6E62IdWe76Yr8KsuwVjxzqSPQvESJqTE3EMADQ9S0RtwWDGNG9Q=="
    },
    "babel-plugin-transform-remove-console": {
      "version": "6.9.0",
      "resolved": "https://registry.npmjs.org/babel-plugin-transform-remove-console/-/babel-plugin-transform-remove-console-6.9.0.tgz",
      "integrity": "sha512-mck9//yGTwObqqqDzY/sISO88/5/XfIB3ILb4uJLXk2xq124NT4yQVjFSRgVSbLcNq8OyBAn2acxKUqg4W/okQ=="
    },
    "babel-plugin-transform-remove-debugger": {
      "version": "6.9.0",
      "resolved": "https://registry.npmjs.org/babel-plugin-transform-remove-debugger/-/babel-plugin-transform-remove-debugger-6.9.0.tgz",
      "integrity": "sha512-i/HWGjsmL2d1N2dl+eIzf44XpSP5v7hi1/GXB0xzom9kjrU8js3T8Kadizn95ZxfHK592Vg8P4JJWP/fvimEWw=="
    },
    "babel-plugin-transform-remove-undefined": {
      "version": "0.2.0",
      "resolved": "https://registry.npmjs.org/babel-plugin-transform-remove-undefined/-/babel-plugin-transform-remove-undefined-0.2.0.tgz",
      "integrity": "sha512-O8v57tPMHkp89kA4ZfQEYds/pzgvz/QYerBJjIuL5/Jc7RnvMVRA5gJY9zFKP7WayW8WOSBV4vh8Y8FJRio+ow=="
    },
    "babel-plugin-transform-simplify-comparison-operators": {
      "version": "6.9.0",
      "resolved": "https://registry.npmjs.org/babel-plugin-transform-simplify-comparison-operators/-/babel-plugin-transform-simplify-comparison-operators-6.9.0.tgz",
      "integrity": "sha512-EJyfYeph0CSekwQuwWVwJqy2go/bETkR95iaWQ/HTUis7tkCGNYmXngaFzuIXdmoPXfvmXYCvAXR4/93hqHVjw=="
    },
    "babel-plugin-transform-undefined-to-void": {
      "version": "6.9.0",
      "resolved": "https://registry.npmjs.org/babel-plugin-transform-undefined-to-void/-/babel-plugin-transform-undefined-to-void-6.9.0.tgz",
      "integrity": "sha512-AVDVEmp0S9mbF1O8zekWbsOOmqnR08PZah5NRZJqSvJnFgiL0ep4Lwo4EymH8OieJR2QgQdR3q71TNW+wiVn4g=="
    },
    "babel-preset-meteor": {
      "version": "7.0.0-beta.42",
      "resolved": "https://registry.npmjs.org/babel-preset-meteor/-/babel-preset-meteor-7.0.0-beta.42.tgz",
      "integrity": "sha512-GrZ27sLvBGELCFMXPZIGn2slK2Fpvr/Z+KoL8zg5l0ANEJnj08kcH0LG0rMFZfSujNXaSXwZqP8ZsJZ7E1aacA=="
    },
    "babel-preset-minify": {
      "version": "0.2.0",
      "resolved": "https://registry.npmjs.org/babel-preset-minify/-/babel-preset-minify-0.2.0.tgz",
      "integrity": "sha512-mR8Q44RmMzm18bM2Lqd9uiPopzk5GDCtVuquNbLFmX6lOKnqWoenaNBxnWW0UhBFC75lEHTIgNGCbnsRI0pJVw=="
    },
    "babylon": {
      "version": "7.0.0-beta.42",
      "resolved": "https://registry.npmjs.org/babylon/-/babylon-7.0.0-beta.42.tgz",
      "integrity": "sha512-h6E/OkkvcBw/JimbL0p8dIaxrcuQn3QmIYGC/GtJlRYif5LTKBYPHXYwqluJpfS/kOXoz0go+9mkmOVC0M+zWw=="
    },
    "braces": {
      "version": "1.8.5",
      "resolved": "https://registry.npmjs.org/braces/-/braces-1.8.5.tgz",
      "integrity": "sha1-uneWLhLf+WnWt2cR6RS3N4V79qc="
    },
    "chalk": {
      "version": "2.3.2",
      "resolved": "https://registry.npmjs.org/chalk/-/chalk-2.3.2.tgz",
      "integrity": "sha512-ZM4j2/ld/YZDc3Ma8PgN7gyAk+kHMMMyzLNryCPGhWrsfAuDVeuid5bpRFTDgMH9JBK2lA4dyyAkkZYF/WcqDQ=="
    },
    "color-convert": {
      "version": "1.9.1",
      "resolved": "https://registry.npmjs.org/color-convert/-/color-convert-1.9.1.tgz",
      "integrity": "sha512-mjGanIiwQJskCC18rPR6OmrZ6fm2Lc7PeGFYwCmy5J34wC6F1PzdGL6xeMfmgicfYcNLGuVFA3WzXtIDCQSZxQ=="
    },
    "color-name": {
      "version": "1.1.3",
      "resolved": "https://registry.npmjs.org/color-name/-/color-name-1.1.3.tgz",
      "integrity": "sha1-p9BVi9icQveV3UIyj3QIMcpTvCU="
    },
    "convert-source-map": {
      "version": "1.5.0",
      "resolved": "https://registry.npmjs.org/convert-source-map/-/convert-source-map-1.5.0.tgz",
      "integrity": "sha1-ms1whRxtXf3ZPZKC5e35SgP/RrU="
    },
    "core-js": {
      "version": "2.5.4",
      "resolved": "https://registry.npmjs.org/core-js/-/core-js-2.5.4.tgz",
      "integrity": "sha1-8si/GB8qgLkvNgEhQpzmOi8K6uA="
    },
    "debug": {
      "version": "3.1.0",
      "resolved": "https://registry.npmjs.org/debug/-/debug-3.1.0.tgz",
      "integrity": "sha512-OX8XqP7/1a9cqkxYw2yXss15f26NKWBpDXQd0/uK/KPqdQhxbPa994hnzjcE2VqQpDslf55723cKPUOGSmMY3g=="
    },
    "escape-string-regexp": {
      "version": "1.0.5",
      "resolved": "https://registry.npmjs.org/escape-string-regexp/-/escape-string-regexp-1.0.5.tgz",
      "integrity": "sha1-G2HAViGQqN/2rjuyzwIAyhMLhtQ="
    },
    "esutils": {
      "version": "2.0.2",
      "resolved": "https://registry.npmjs.org/esutils/-/esutils-2.0.2.tgz",
      "integrity": "sha1-Cr9PHKpbyx96nYrMbepPqqBLrJs="
    },
    "expand-brackets": {
      "version": "0.1.5",
      "resolved": "https://registry.npmjs.org/expand-brackets/-/expand-brackets-0.1.5.tgz",
      "integrity": "sha1-3wcoTjQqgHzXM6xa9yQR5YHRF3s="
    },
    "expand-range": {
      "version": "1.8.2",
      "resolved": "https://registry.npmjs.org/expand-range/-/expand-range-1.8.2.tgz",
      "integrity": "sha1-opnv/TNf4nIeuujiV+x5ZE/IUzc="
    },
    "extglob": {
      "version": "0.3.2",
      "resolved": "https://registry.npmjs.org/extglob/-/extglob-0.3.2.tgz",
      "integrity": "sha1-Lhj/PS9JqydlzskCPwEdqo2DSaE="
    },
    "filename-regex": {
      "version": "2.0.1",
      "resolved": "https://registry.npmjs.org/filename-regex/-/filename-regex-2.0.1.tgz",
      "integrity": "sha1-wcS5vuPglyXdsQa3XB4wH+LxiyY="
    },
    "fill-range": {
      "version": "2.2.3",
      "resolved": "https://registry.npmjs.org/fill-range/-/fill-range-2.2.3.tgz",
      "integrity": "sha1-ULd9/X5Gm8dJJHCWNpn+eoSFpyM="
    },
    "for-in": {
      "version": "1.0.2",
      "resolved": "https://registry.npmjs.org/for-in/-/for-in-1.0.2.tgz",
      "integrity": "sha1-gQaNKVqBQuwKxybG4iAMMPttXoA="
    },
    "for-own": {
      "version": "0.1.5",
      "resolved": "https://registry.npmjs.org/for-own/-/for-own-0.1.5.tgz",
      "integrity": "sha1-UmXGgaTylNq78XyVCbZ2OqhFEM4="
    },
    "glob-base": {
      "version": "0.3.0",
      "resolved": "https://registry.npmjs.org/glob-base/-/glob-base-0.3.0.tgz",
      "integrity": "sha1-27Fk9iIbHAscz4Kuoyi0l98Oo8Q="
    },
    "glob-parent": {
      "version": "2.0.0",
      "resolved": "https://registry.npmjs.org/glob-parent/-/glob-parent-2.0.0.tgz",
      "integrity": "sha1-gTg9ctsFT8zPUzbaqQLxgvbtuyg="
    },
    "globals": {
      "version": "11.4.0",
      "resolved": "https://registry.npmjs.org/globals/-/globals-11.4.0.tgz",
      "integrity": "sha512-Dyzmifil8n/TmSqYDEXbm+C8yitzJQqQIlJQLNRMwa+BOUJpRC19pyVeN12JAjt61xonvXjtff+hJruTRXn5HA=="
    },
    "has-flag": {
      "version": "3.0.0",
      "resolved": "https://registry.npmjs.org/has-flag/-/has-flag-3.0.0.tgz",
      "integrity": "sha1-tdRU3CGZriJWmfNGfloH87lVuv0="
    },
    "invariant": {
      "version": "2.2.4",
      "resolved": "https://registry.npmjs.org/invariant/-/invariant-2.2.4.tgz",
      "integrity": "sha512-phJfQVBuaJM5raOpJjSfkiD6BpbCE4Ns//LaXl6wGYtUBY83nWS6Rf9tXm2e8VaK60JEjYldbPif/A2B1C2gNA=="
    },
    "is-buffer": {
      "version": "1.1.6",
      "resolved": "https://registry.npmjs.org/is-buffer/-/is-buffer-1.1.6.tgz",
      "integrity": "sha512-NcdALwpXkTm5Zvvbk7owOUSvVvBKDgKP5/ewfXEznmQFfs4ZRmanOeKBTjRVjka3QFoN6XJ+9F3USqfHqTaU5w=="
    },
    "is-dotfile": {
      "version": "1.0.3",
      "resolved": "https://registry.npmjs.org/is-dotfile/-/is-dotfile-1.0.3.tgz",
      "integrity": "sha1-pqLzL/0t+wT1yiXs0Pa4PPeYoeE="
    },
    "is-equal-shallow": {
      "version": "0.1.3",
      "resolved": "https://registry.npmjs.org/is-equal-shallow/-/is-equal-shallow-0.1.3.tgz",
      "integrity": "sha1-IjgJj8Ih3gvPpdnqxMRdY4qhxTQ="
    },
    "is-extendable": {
      "version": "0.1.1",
      "resolved": "https://registry.npmjs.org/is-extendable/-/is-extendable-0.1.1.tgz",
      "integrity": "sha1-YrEQ4omkcUGOPsNqYX1HLjAd/Ik="
    },
    "is-extglob": {
      "version": "1.0.0",
      "resolved": "https://registry.npmjs.org/is-extglob/-/is-extglob-1.0.0.tgz",
      "integrity": "sha1-rEaBd8SUNAWgkvyPKXYMb/xiBsA="
    },
    "is-glob": {
      "version": "2.0.1",
      "resolved": "https://registry.npmjs.org/is-glob/-/is-glob-2.0.1.tgz",
      "integrity": "sha1-0Jb5JqPe1WAPP9/ZEZjLCIjC2GM="
    },
    "is-number": {
      "version": "2.1.0",
      "resolved": "https://registry.npmjs.org/is-number/-/is-number-2.1.0.tgz",
      "integrity": "sha1-Afy7s5NGOlSPL0ZszhbezknbkI8="
    },
    "is-posix-bracket": {
      "version": "0.1.1",
      "resolved": "https://registry.npmjs.org/is-posix-bracket/-/is-posix-bracket-0.1.1.tgz",
      "integrity": "sha1-MzTceXdDaOkvAW5vvAqI9c1ua8Q="
    },
    "is-primitive": {
      "version": "2.0.0",
      "resolved": "https://registry.npmjs.org/is-primitive/-/is-primitive-2.0.0.tgz",
      "integrity": "sha1-IHurkWOEmcB7Kt8kCkGochADRXU="
    },
    "isarray": {
      "version": "1.0.0",
      "resolved": "https://registry.npmjs.org/isarray/-/isarray-1.0.0.tgz",
      "integrity": "sha1-u5NdSFgsuhaMBoNJV6VKPgcSTxE="
    },
    "isobject": {
      "version": "2.1.0",
      "resolved": "https://registry.npmjs.org/isobject/-/isobject-2.1.0.tgz",
      "integrity": "sha1-8GVWEJaj8dou9GJy+BXIQNh+DIk="
    },
    "js-tokens": {
      "version": "3.0.2",
      "resolved": "https://registry.npmjs.org/js-tokens/-/js-tokens-3.0.2.tgz",
      "integrity": "sha1-mGbfOVECEw449/mWvOtlRDIJwls="
    },
    "jsesc": {
      "version": "2.5.1",
      "resolved": "https://registry.npmjs.org/jsesc/-/jsesc-2.5.1.tgz",
      "integrity": "sha1-5CGiqOINawgZ3yiQj3glJrlt0f4="
    },
    "json5": {
      "version": "0.5.1",
      "resolved": "https://registry.npmjs.org/json5/-/json5-0.5.1.tgz",
      "integrity": "sha1-Hq3nrMASA0rYTiOWdn6tn6VJWCE="
    },
    "kind-of": {
      "version": "3.2.2",
      "resolved": "https://registry.npmjs.org/kind-of/-/kind-of-3.2.2.tgz",
      "integrity": "sha1-MeohpzS6ubuw8yRm2JOupR5KPGQ="
    },
    "lodash": {
      "version": "4.17.4",
      "resolved": "https://registry.npmjs.org/lodash/-/lodash-4.17.4.tgz",
      "integrity": "sha1-eCA6TRwyiuHYbcpkYONptX9AVa4="
    },
    "lodash.isplainobject": {
      "version": "4.0.6",
      "resolved": "https://registry.npmjs.org/lodash.isplainobject/-/lodash.isplainobject-4.0.6.tgz",
      "integrity": "sha1-fFJqUtibRcRcxpC4gWO+BJf1UMs="
    },
    "lodash.some": {
      "version": "4.6.0",
      "resolved": "https://registry.npmjs.org/lodash.some/-/lodash.some-4.6.0.tgz",
      "integrity": "sha1-G7nzFO9ri63tE7VJFpsqlF62jk0="
    },
    "loose-envify": {
      "version": "1.3.1",
      "resolved": "https://registry.npmjs.org/loose-envify/-/loose-envify-1.3.1.tgz",
      "integrity": "sha1-0aitM/qc4OcT1l/dCsi3SNR4yEg="
    },
    "meteor-babel": {
      "version": "7.0.0-beta.42",
      "resolved": "https://registry.npmjs.org/meteor-babel/-/meteor-babel-7.0.0-beta.42.tgz",
      "integrity": "sha512-fvFC1KRVZqOeIKHrXJJjUD3XygrGQWudDW6uFVuvWMpUzSRE2f5faz3TnT03QPeicRygbi9Lqvx1M85u8kYk2A=="
    },
    "meteor-babel-helpers": {
      "version": "0.0.3",
      "resolved": "https://registry.npmjs.org/meteor-babel-helpers/-/meteor-babel-helpers-0.0.3.tgz",
      "integrity": "sha1-8uXZ+HlvvS6JAQI9dpnlsgLqn7A="
    },
    "micromatch": {
      "version": "2.3.11",
      "resolved": "https://registry.npmjs.org/micromatch/-/micromatch-2.3.11.tgz",
      "integrity": "sha1-hmd8l9FyCzY0MdBNDRUpO9OMFWU="
    },
    "minipass": {
      "version": "2.2.4",
      "resolved": "https://registry.npmjs.org/minipass/-/minipass-2.2.4.tgz",
      "integrity": "sha512-hzXIWWet/BzWhYs2b+u7dRHlruXhwdgvlTMDKC6Cb1U7ps6Ac6yQlR39xsbjWJE377YTCtKwIXIpJ5oP+j5y8g=="
    },
    "minizlib": {
      "version": "1.1.0",
      "resolved": "https://registry.npmjs.org/minizlib/-/minizlib-1.1.0.tgz",
      "integrity": "sha512-4T6Ur/GctZ27nHfpt9THOdRZNgyJ9FZchYO1ceg5S8Q3DNLCKYy44nCZzgCJgcvx2UM8czmqak5BCxJMrq37lA=="
    },
    "ms": {
      "version": "2.0.0",
      "resolved": "https://registry.npmjs.org/ms/-/ms-2.0.0.tgz",
      "integrity": "sha1-VgiurfwAvmwpAd9fmGF4jeDVl8g="
    },
    "normalize-path": {
      "version": "2.1.1",
      "resolved": "https://registry.npmjs.org/normalize-path/-/normalize-path-2.1.1.tgz",
      "integrity": "sha1-GrKLVW4Zg2Oowab35vogE3/mrtk="
    },
    "object.omit": {
      "version": "2.0.1",
      "resolved": "https://registry.npmjs.org/object.omit/-/object.omit-2.0.1.tgz",
      "integrity": "sha1-Gpx0SCnznbuFjHbKNXmuKlTr0fo="
    },
    "parse-glob": {
      "version": "3.0.4",
      "resolved": "https://registry.npmjs.org/parse-glob/-/parse-glob-3.0.4.tgz",
      "integrity": "sha1-ssN2z7EfNVE7rdFz7wu246OIORw="
    },
    "path-parse": {
      "version": "1.0.5",
      "resolved": "https://registry.npmjs.org/path-parse/-/path-parse-1.0.5.tgz",
      "integrity": "sha1-PBrfhx6pzWyUMbbqK9dKD/BVxME="
    },
    "preserve": {
      "version": "0.2.0",
      "resolved": "https://registry.npmjs.org/preserve/-/preserve-0.2.0.tgz",
      "integrity": "sha1-gV7R9uvGWSb4ZbMQwHE7yzMVzks="
    },
    "private": {
      "version": "0.1.8",
      "resolved": "https://registry.npmjs.org/private/-/private-0.1.8.tgz",
      "integrity": "sha512-VvivMrbvd2nKkiG38qjULzlc+4Vx4wm/whI9pQD35YrARNnhxeiRktSOhSukRLFNlzg6Br/cJPet5J/u19r/mg=="
    },
    "randomatic": {
      "version": "1.1.7",
      "resolved": "https://registry.npmjs.org/randomatic/-/randomatic-1.1.7.tgz",
      "integrity": "sha512-D5JUjPyJbaJDkuAazpVnSfVkLlpeO3wDlPROTMLGKG1zMFNFRgrciKo1ltz/AzNTkqE0HzDx655QOL51N06how==",
      "dependencies": {
        "is-number": {
          "version": "3.0.0",
          "resolved": "https://registry.npmjs.org/is-number/-/is-number-3.0.0.tgz",
          "integrity": "sha1-JP1iAaR4LPUFYcgQJ2r8fRLXEZU=",
          "dependencies": {
            "kind-of": {
              "version": "3.2.2",
              "resolved": "https://registry.npmjs.org/kind-of/-/kind-of-3.2.2.tgz",
              "integrity": "sha1-MeohpzS6ubuw8yRm2JOupR5KPGQ="
            }
          }
        },
        "kind-of": {
          "version": "4.0.0",
          "resolved": "https://registry.npmjs.org/kind-of/-/kind-of-4.0.0.tgz",
          "integrity": "sha1-IIE989cSkosgc3hpGkUGb65y3Vc="
        }
      }
    },
    "regenerate": {
      "version": "1.3.3",
      "resolved": "https://registry.npmjs.org/regenerate/-/regenerate-1.3.3.tgz",
      "integrity": "sha512-jVpo1GadrDAK59t/0jRx5VxYWQEDkkEKi6+HjE3joFVLfDOh9Xrdh0dF1eSq+BI/SwvTQ44gSscJ8N5zYL61sg=="
    },
    "regenerate-unicode-properties": {
      "version": "5.1.3",
      "resolved": "https://registry.npmjs.org/regenerate-unicode-properties/-/regenerate-unicode-properties-5.1.3.tgz",
      "integrity": "sha512-Yjy6t7jFQczDhYE+WVm7pg6gWYE258q4sUkk9qDErwXJIqx7jU9jGrMFHutJK/SRfcg7MEkXjGaYiVlOZyev/A=="
    },
    "regenerator-runtime": {
      "version": "0.11.1",
      "resolved": "https://registry.npmjs.org/regenerator-runtime/-/regenerator-runtime-0.11.1.tgz",
      "integrity": "sha512-MguG95oij0fC3QV3URf4V2SDYGJhJnJGqvIIgdECeODCT98wSWDAJ94SSuVpYQUoTcGUIL6L4yNB7j1DFFHSBg=="
    },
    "regenerator-transform": {
      "version": "0.12.3",
      "resolved": "https://registry.npmjs.org/regenerator-transform/-/regenerator-transform-0.12.3.tgz",
      "integrity": "sha512-y2uxO/6u+tVmtEDIKo+tLCtI0GcbQr0OreosKgCd7HP4VypGjtTrw79DezuwT+W5QX0YWuvpeBOgumrepwM1kA=="
    },
    "regex-cache": {
      "version": "0.4.4",
      "resolved": "https://registry.npmjs.org/regex-cache/-/regex-cache-0.4.4.tgz",
      "integrity": "sha512-nVIZwtCjkC9YgvWkpM55B5rBhBYRZhAaJbgcFYXXsHnbZ9UZI9nnVWYZpBlCqv9ho2eZryPnWrZGsOdPwVWXWQ=="
    },
    "regexpu-core": {
      "version": "4.1.3",
      "resolved": "https://registry.npmjs.org/regexpu-core/-/regexpu-core-4.1.3.tgz",
      "integrity": "sha512-mB+njEzO7oezA57IbQxxd6fVPOeWKDmnGvJ485CwmfNchjHe5jWwqKepapmzUEj41yxIAqOg+C4LbXuJlkiO8A=="
    },
    "regjsgen": {
      "version": "0.3.0",
      "resolved": "https://registry.npmjs.org/regjsgen/-/regjsgen-0.3.0.tgz",
      "integrity": "sha1-DuSj6SdkMM2iXx54nqbBW4ewy0M="
    },
    "regjsparser": {
      "version": "0.2.1",
      "resolved": "https://registry.npmjs.org/regjsparser/-/regjsparser-0.2.1.tgz",
      "integrity": "sha1-w3h1U/rwTndcMCEC7zRtmVAA7Bw=",
      "dependencies": {
        "jsesc": {
          "version": "0.5.0",
          "resolved": "https://registry.npmjs.org/jsesc/-/jsesc-0.5.0.tgz",
          "integrity": "sha1-597mbjXW/Bb3EP6R1c9p9w8IkR0="
        }
      }
    },
    "reify": {
      "version": "0.14.2",
      "resolved": "https://registry.npmjs.org/reify/-/reify-0.14.2.tgz",
      "integrity": "sha512-gJA67pCidAROSmr4/8SQuMQXtZwtSvoVIDR6KjoWxnO4LSD8iYNjMcRrHuQQ/c8cXYaoCpEQh0rO9CNNu1z5lA=="
    },
    "remove-trailing-separator": {
      "version": "1.1.0",
      "resolved": "https://registry.npmjs.org/remove-trailing-separator/-/remove-trailing-separator-1.1.0.tgz",
      "integrity": "sha1-wkvOKig62tW8P1jg1IJJuSN52O8="
    },
    "repeat-element": {
      "version": "1.1.2",
      "resolved": "https://registry.npmjs.org/repeat-element/-/repeat-element-1.1.2.tgz",
      "integrity": "sha1-7wiaF40Ug7quTZPrmLT55OEdmQo="
    },
    "repeat-string": {
      "version": "1.6.1",
      "resolved": "https://registry.npmjs.org/repeat-string/-/repeat-string-1.6.1.tgz",
      "integrity": "sha1-jcrkcOHIirwtYA//Sndihtp15jc="
    },
    "resolve": {
      "version": "1.6.0",
      "resolved": "https://registry.npmjs.org/resolve/-/resolve-1.6.0.tgz",
      "integrity": "sha512-mw7JQNu5ExIkcw4LPih0owX/TZXjD/ZUF/ZQ/pDnkw3ZKhDcZZw5klmBlj6gVMwjQ3Pz5Jgu7F3d0jcDVuEWdw=="
    },
    "safe-buffer": {
      "version": "5.1.1",
      "resolved": "https://registry.npmjs.org/safe-buffer/-/safe-buffer-5.1.1.tgz",
      "integrity": "sha512-kKvNJn6Mm93gAczWVJg7wH+wGYWNrDHdWvpUmHyEsgCtIwwo3bqPtV4tR5tuPaUhTOo/kvhVwd8XwwOllGYkbg=="
    },
    "semver": {
      "version": "5.5.0",
      "resolved": "https://registry.npmjs.org/semver/-/semver-5.5.0.tgz",
      "integrity": "sha512-4SJ3dm0WAwWy/NVeioZh5AntkdJoWKxHxcmyP622fOkgHa4z3R0TdBJICINyaSDE6uNwVc8gZr+ZinwZAH4xIA=="
    },
    "source-map": {
      "version": "0.5.7",
      "resolved": "https://registry.npmjs.org/source-map/-/source-map-0.5.7.tgz",
      "integrity": "sha1-igOdLRAh0i0eoUyA2OpGi6LvP8w="
    },
    "supports-color": {
      "version": "5.3.0",
      "resolved": "https://registry.npmjs.org/supports-color/-/supports-color-5.3.0.tgz",
      "integrity": "sha512-0aP01LLIskjKs3lq52EC0aGBAJhLq7B2Rd8HC/DR/PtNNpcLilNmHC12O+hu0usQpo7wtHNRqtrhBwtDb0+dNg=="
    },
    "to-fast-properties": {
      "version": "2.0.0",
      "resolved": "https://registry.npmjs.org/to-fast-properties/-/to-fast-properties-2.0.0.tgz",
      "integrity": "sha1-3F5pjL0HkmW8c+A3doGk5Og/YW4="
    },
    "trim-right": {
      "version": "1.0.1",
      "resolved": "https://registry.npmjs.org/trim-right/-/trim-right-1.0.1.tgz",
      "integrity": "sha1-yy4SAwZ+DI3h9hQJS5/kVwTqYAM="
    },
    "unicode-canonical-property-names-ecmascript": {
      "version": "1.0.3",
      "resolved": "https://registry.npmjs.org/unicode-canonical-property-names-ecmascript/-/unicode-canonical-property-names-ecmascript-1.0.3.tgz",
      "integrity": "sha512-iG/2t0F2LAU8aZYPkX5gi7ebukHnr3sWFESpb+zPQeeaQwOkfoO6ZW17YX7MdRPNG9pCy+tjzGill+Ah0Em0HA=="
    },
    "unicode-match-property-ecmascript": {
      "version": "1.0.3",
      "resolved": "https://registry.npmjs.org/unicode-match-property-ecmascript/-/unicode-match-property-ecmascript-1.0.3.tgz",
      "integrity": "sha512-nFcaBFcr08UQNF15ZgI5ISh3yUnQm7SJRRxwYrL5VYX46pS+6Q7TCTv4zbK+j6/l7rQt0mMiTL2zpmeygny6rA=="
    },
    "unicode-match-property-value-ecmascript": {
      "version": "1.0.1",
      "resolved": "https://registry.npmjs.org/unicode-match-property-value-ecmascript/-/unicode-match-property-value-ecmascript-1.0.1.tgz",
      "integrity": "sha512-lM8B0FDZQh9yYGgiabRQcyWicB27VLOolSBRIxsO7FeQPtg+79Oe7sC8Mzr8BObDs+G9CeYmC/shHo6OggNEog=="
    },
    "unicode-property-aliases-ecmascript": {
      "version": "1.0.3",
      "resolved": "https://registry.npmjs.org/unicode-property-aliases-ecmascript/-/unicode-property-aliases-ecmascript-1.0.3.tgz",
      "integrity": "sha512-TdDmDOTxEf2ad1g3ZBpM6cqKIb2nJpVlz1Q++casDryKz18tpeMBhSng9hjC1CTQCkOV9Rw2knlSB6iRo7ad1w=="
    },
    "yallist": {
      "version": "3.0.2",
      "resolved": "https://registry.npmjs.org/yallist/-/yallist-3.0.2.tgz",
      "integrity": "sha1-hFK0u36Dx8GI2AQcGoN8dz1ti7k="
    }
  }
}
